%!PS-Adobe-2.0
%%Title: Prof +RTS -K100M -p -hc
%%Creator: hp2ps (version 0.25)
%%CreationDate: Mon Aug 26 12:12 2013
%%EndComments
-90 rotate
-756.000000 72.000000 translate
/HE10 /Helvetica findfont 10 scalefont def
/HE12 /Helvetica findfont 12 scalefont def
newpath
0 0 moveto
0 432.000000 rlineto
648.000000 0 rlineto
0 -432.000000 rlineto
closepath
0.500000 setlinewidth
stroke
newpath
5.000000 407.000000 moveto
0 20.000000 rlineto
638.000000 0 rlineto
0 -20.000000 rlineto
closepath
0.500000 setlinewidth
stroke
HE12 setfont
11.000000 413.000000 moveto
(Prof +RTS -K100M -p -hc) show
HE12 setfont
(0 bytes x seconds)
dup stringwidth pop
2 div
319.000000
exch sub
413.000000 moveto
show
HE12 setfont
(Mon Aug 26 12:12 2013)
dup stringwidth pop
637.000000
exch sub
413.000000 moveto
show
45.000000 20.000000 moveto
564.000000 0 rlineto
0.500000 setlinewidth
stroke
HE10 setfont
(seconds)
dup stringwidth pop
609.000000
exch sub
5.000000 moveto
show
45.000000 20.000000 moveto
0 -4 rlineto
stroke
HE10 setfont
(0.0)
dup stringwidth pop
2 div
45.000000 exch sub
5.000000 moveto
show
101.400000 20.000000 moveto
0 -4 rlineto
stroke
HE10 setfont
(0.0)
dup stringwidth pop
2 div
101.400000 exch sub
5.000000 moveto
show
157.800000 20.000000 moveto
0 -4 rlineto
stroke
HE10 setfont
(0.0)
dup stringwidth pop
2 div
157.800000 exch sub
5.000000 moveto
show
214.200000 20.000000 moveto
0 -4 rlineto
stroke
HE10 setfont
(0.0)
dup stringwidth pop
2 div
214.200000 exch sub
5.000000 moveto
show
270.600000 20.000000 moveto
0 -4 rlineto
stroke
HE10 setfont
(0.0)
dup stringwidth pop
2 div
270.600000 exch sub
5.000000 moveto
show
327.000000 20.000000 moveto
0 -4 rlineto
stroke
HE10 setfont
(0.0)
dup stringwidth pop
2 div
327.000000 exch sub
5.000000 moveto
show
383.400000 20.000000 moveto
0 -4 rlineto
stroke
HE10 setfont
(0.0)
dup stringwidth pop
2 div
383.400000 exch sub
5.000000 moveto
show
439.800000 20.000000 moveto
0 -4 rlineto
stroke
HE10 setfont
(0.0)
dup stringwidth pop
2 div
439.800000 exch sub
5.000000 moveto
show
496.200000 20.000000 moveto
0 -4 rlineto
stroke
HE10 setfont
(0.0)
dup stringwidth pop
2 div
496.200000 exch sub
5.000000 moveto
show
552.600000 20.000000 moveto
0 -4 rlineto
stroke
HE10 setfont
(0.0)
dup stringwidth pop
2 div
552.600000 exch sub
5.000000 moveto
show
45.000000 20.000000 moveto
0 382.000000 rlineto
0.500000 setlinewidth
stroke
gsave
HE10 setfont
(bytes)
dup stringwidth pop
402.000000
exch sub
40.000000 exch
translate
90 rotate
0 0 moveto
show
grestore
45.000000 20.000000 moveto
-4 0 rlineto
stroke
HE10 setfont
(0)
dup stringwidth
2 div
20.000000 exch sub
exch
40.000000 exch sub
exch
moveto
show
showpage
